module gitlab.com/safesurfer/go-http-server

go 1.16

require (
	github.com/NYTimes/gziphandler v1.1.1 // indirect
	github.com/gorilla/mux v1.8.0
	github.com/joho/godotenv v1.3.0
	github.com/prometheus/client_golang v1.8.0
	github.com/rs/cors v1.7.0
	gopkg.in/yaml.v2 v2.3.0
)
